{
    "key": "group_5bdc431b7be92",
    "title": "Præsentationsfelt",
    "fields": [
        {
            "key": "field_5c596313cce72",
            "label": "Logo",
            "name": "logo",
            "type": "image",
            "instructions": "",
            "required": 1,
            "conditional_logic": 0,
            "wrapper": {
                "width": "",
                "class": "",
                "id": ""
            },
            "return_format": "array",
            "preview_size": "medium",
            "library": "all",
            "min_width": "",
            "min_height": "",
            "min_size": "",
            "max_width": "",
            "max_height": "",
            "max_size": "",
            "mime_types": ""
        },
        {
            "key": "field_5c5d758b4ebd8",
            "label": "Baggrundstype",
            "name": "bg_toggle",
            "type": "radio",
            "instructions": "",
            "required": 1,
            "conditional_logic": 0,
            "wrapper": {
                "width": "",
                "class": "",
                "id": ""
            },
            "choices": {
                "image": "Billede",
                "color": "Farve"
            },
            "allow_null": 0,
            "other_choice": 0,
            "default_value": "",
            "layout": "vertical",
            "return_format": "value",
            "save_other_choice": 0
        },
        {
            "key": "field_5bdc431b818b3",
            "label": "Baggrundsbillede",
            "name": "baggrundsbillede",
            "type": "image",
            "instructions": "",
            "required": 1,
            "conditional_logic": [
                [
                    {
                        "field": "field_5c5d758b4ebd8",
                        "operator": "==",
                        "value": "image"
                    }
                ]
            ],
            "wrapper": {
                "width": "",
                "class": "",
                "id": ""
            },
            "return_format": "array",
            "preview_size": "medium",
            "library": "all",
            "min_width": "",
            "min_height": "",
            "min_size": "",
            "max_width": "",
            "max_height": "",
            "max_size": "",
            "mime_types": "jpg, png, gif"
        },
        {
            "key": "field_5c5d76034ebd9",
            "label": "Baggrundsfarve",
            "name": "baggrundsfarve",
            "type": "color_picker",
            "instructions": "",
            "required": 1,
            "conditional_logic": [
                [
                    {
                        "field": "field_5c5d758b4ebd8",
                        "operator": "==",
                        "value": "color"
                    }
                ]
            ],
            "wrapper": {
                "width": "",
                "class": "",
                "id": ""
            },
            "default_value": "#ed476b"
        },
        {
            "key": "field_5e56765bab821",
            "label": "Bånd",
            "name": "ribbon",
            "type": "checkbox",
            "instructions": "Skal dette læringstilbud vises med et bånd i karusellen på forsiden?",
            "required": 0,
            "conditional_logic": 0,
            "wrapper": {
                "width": "",
                "class": "",
                "id": ""
            },
            "choices": {
                "true": "Ja, vis med bånd"
            },
            "allow_custom": 0,
            "default_value": [],
            "layout": "vertical",
            "toggle": 0,
            "return_format": "value",
            "save_custom": 0
        },
        {
            "key": "field_5e567a24664b9",
            "label": "Bånd farve",
            "name": "ribbon-color",
            "type": "select",
            "instructions": "Skal dette læringstilbud vises med et bånd i karusellen på forsiden?",
            "required": 0,
            "conditional_logic": [
                [
                    {
                        "field": "field_5e56765bab821",
                        "operator": "==",
                        "value": "true"
                    }
                ]
            ],
            "wrapper": {
                "width": "",
                "class": "",
                "id": ""
            },
            "choices": {
                "blue": "Blå",
                "red": "Rød",
                "orange": "Orange"
            },
            "default_value": false,
            "allow_null": 1,
            "multiple": 0,
            "ui": 0,
            "return_format": "value",
            "ajax": 0,
            "placeholder": ""
        },
        {
            "key": "field_5e567aa0664ba",
            "label": "Bånd tekst",
            "name": "ribbon-text",
            "type": "text",
            "instructions": "Max. 8 karakterer",
            "required": 0,
            "conditional_logic": [
                [
                    {
                        "field": "field_5e56765bab821",
                        "operator": "==",
                        "value": "true"
                    }
                ]
            ],
            "wrapper": {
                "width": "",
                "class": "",
                "id": ""
            },
            "default_value": "",
            "placeholder": "",
            "prepend": "",
            "append": "",
            "maxlength": 8
        },
        {
            "key": "field_5c5963b340fb9",
            "label": "Tilføj medie",
            "name": "tilfoj_medie",
            "type": "flexible_content",
            "instructions": "Medier er f.eks. billeder og video, vist til højre for informationen om pågældende tilbud.",
            "required": 0,
            "conditional_logic": 0,
            "wrapper": {
                "width": "",
                "class": "",
                "id": ""
            },
            "layouts": {
                "5c596425b2239": {
                    "key": "5c596425b2239",
                    "name": "video",
                    "label": "Video",
                    "display": "block",
                    "sub_fields": [
                        {
                            "key": "field_5c59647940fba",
                            "label": "Youtube Url",
                            "name": "youtube_id",
                            "type": "oembed",
                            "instructions": "Indsæt youtube url. F.eks. https:\/\/www.youtube.com\/watch?v=9Kn_YaVHkkA",
                            "required": 1,
                            "conditional_logic": 0,
                            "wrapper": {
                                "width": "",
                                "class": "",
                                "id": ""
                            },
                            "width": "",
                            "height": 380
                        }
                    ],
                    "min": "",
                    "max": ""
                },
                "layout_5c596d553e88c": {
                    "key": "layout_5c596d553e88c",
                    "name": "billeder",
                    "label": "Billeder",
                    "display": "block",
                    "sub_fields": [
                        {
                            "key": "field_5c596d613e88d",
                            "label": "billede",
                            "name": "billede",
                            "type": "image",
                            "instructions": "",
                            "required": 0,
                            "conditional_logic": 0,
                            "wrapper": {
                                "width": "",
                                "class": "",
                                "id": ""
                            },
                            "return_format": "array",
                            "preview_size": "thumbnail",
                            "library": "all",
                            "min_width": "",
                            "min_height": "",
                            "min_size": "",
                            "max_width": "",
                            "max_height": "",
                            "max_size": "",
                            "mime_types": ""
                        }
                    ],
                    "min": "",
                    "max": ""
                }
            },
            "button_label": "Tilføj medie",
            "min": 0,
            "max": 1
        },
        {
            "key": "field_5bdc431b8192c",
            "label": "Beskrivelse",
            "name": "beskrivelse",
            "type": "textarea",
            "instructions": "",
            "required": 1,
            "conditional_logic": 0,
            "wrapper": {
                "width": "",
                "class": "",
                "id": ""
            },
            "default_value": "",
            "placeholder": "",
            "maxlength": 300,
            "rows": "",
            "new_lines": ""
        },
        {
            "key": "field_5e54feb549bae",
            "label": "Primær knap",
            "name": "primary_knap",
            "type": "flexible_content",
            "instructions": "Brug den primære knap til linke til det aktuelle tilbud. F.eks. \"Gå til stamtræet\" eller \"Gå til pakken - Dødsstraf – og retten til liv\".",
            "required": 1,
            "conditional_logic": 0,
            "wrapper": {
                "width": "",
                "class": "",
                "id": ""
            },
            "layouts": {
                "5c5ab2e5ab7e2": {
                    "key": "5c5ab2e5ab7e2",
                    "name": "internt_link",
                    "label": "Internt link",
                    "display": "row",
                    "sub_fields": [
                        {
                            "key": "field_5e54feb549baf",
                            "label": "Knap tekst",
                            "name": "knap_tekst",
                            "type": "text",
                            "instructions": "",
                            "required": 1,
                            "conditional_logic": 0,
                            "wrapper": {
                                "width": "",
                                "class": "",
                                "id": ""
                            },
                            "default_value": "Gå til",
                            "placeholder": "",
                            "prepend": "",
                            "append": "",
                            "maxlength": ""
                        },
                        {
                            "key": "field_5e54feb549bb0",
                            "label": "Knap url",
                            "name": "knap_url",
                            "type": "page_link",
                            "instructions": "",
                            "required": 1,
                            "conditional_logic": 0,
                            "wrapper": {
                                "width": "",
                                "class": "",
                                "id": ""
                            },
                            "post_type": [
                                "tilbud"
                            ],
                            "taxonomy": "",
                            "allow_null": 0,
                            "allow_archives": 1,
                            "multiple": 0
                        }
                    ],
                    "min": "",
                    "max": ""
                },
                "layout_5c5ab36b37402": {
                    "key": "layout_5c5ab36b37402",
                    "name": "eksternt_link",
                    "label": "Eksternt link",
                    "display": "row",
                    "sub_fields": [
                        {
                            "key": "field_5e54feb549bb2",
                            "label": "Knap tekst",
                            "name": "knap_tekst",
                            "type": "text",
                            "instructions": "",
                            "required": 1,
                            "conditional_logic": 0,
                            "wrapper": {
                                "width": "",
                                "class": "",
                                "id": ""
                            },
                            "default_value": "Gå til",
                            "placeholder": "",
                            "prepend": "",
                            "append": "",
                            "maxlength": ""
                        },
                        {
                            "key": "field_5e54feb549bb1",
                            "label": "Knap url",
                            "name": "knap_url",
                            "type": "url",
                            "instructions": "",
                            "required": 1,
                            "conditional_logic": 0,
                            "wrapper": {
                                "width": "",
                                "class": "",
                                "id": ""
                            },
                            "default_value": "",
                            "placeholder": ""
                        }
                    ],
                    "min": "",
                    "max": ""
                }
            },
            "button_label": "Tilføj knap",
            "min": 1,
            "max": 1
        },
        {
            "key": "field_5c5ab253373fe",
            "label": "Sekundær knap",
            "name": "knapper",
            "type": "flexible_content",
            "instructions": "Brug sekundære knapper til eksempelvis hvis et tilbud har en oversigt. F.eks. \"Se alle Gymnasiepakker\".",
            "required": 0,
            "conditional_logic": 0,
            "wrapper": {
                "width": "",
                "class": "",
                "id": ""
            },
            "layouts": {
                "5c5ab2e5ab7e2": {
                    "key": "5c5ab2e5ab7e2",
                    "name": "internt_link",
                    "label": "Internt link",
                    "display": "row",
                    "sub_fields": [
                        {
                            "key": "field_5c5ab31237400",
                            "label": "Knap tekst",
                            "name": "knap_tekst",
                            "type": "text",
                            "instructions": "",
                            "required": 1,
                            "conditional_logic": 0,
                            "wrapper": {
                                "width": "",
                                "class": "",
                                "id": ""
                            },
                            "default_value": "Se alle",
                            "placeholder": "",
                            "prepend": "",
                            "append": "",
                            "maxlength": ""
                        },
                        {
                            "key": "field_5c5ab34537401",
                            "label": "Knap url",
                            "name": "knap_url",
                            "type": "page_link",
                            "instructions": "",
                            "required": 1,
                            "conditional_logic": 0,
                            "wrapper": {
                                "width": "",
                                "class": "",
                                "id": ""
                            },
                            "post_type": [
                                "tilbud"
                            ],
                            "taxonomy": "",
                            "allow_null": 0,
                            "allow_archives": 1,
                            "multiple": 0
                        }
                    ],
                    "min": "",
                    "max": ""
                },
                "layout_5c5ab36b37402": {
                    "key": "layout_5c5ab36b37402",
                    "name": "eksternt_link",
                    "label": "Eksternt link",
                    "display": "row",
                    "sub_fields": [
                        {
                            "key": "field_5c5ab36b37403",
                            "label": "Knap tekst",
                            "name": "knap_tekst",
                            "type": "text",
                            "instructions": "",
                            "required": 1,
                            "conditional_logic": 0,
                            "wrapper": {
                                "width": "",
                                "class": "",
                                "id": ""
                            },
                            "default_value": "Se alle",
                            "placeholder": "",
                            "prepend": "",
                            "append": "",
                            "maxlength": ""
                        },
                        {
                            "key": "field_5c5ab36b37404",
                            "label": "Knap url",
                            "name": "knap_url",
                            "type": "url",
                            "instructions": "",
                            "required": 1,
                            "conditional_logic": 0,
                            "wrapper": {
                                "width": "",
                                "class": "",
                                "id": ""
                            },
                            "default_value": "",
                            "placeholder": ""
                        }
                    ],
                    "min": "",
                    "max": ""
                }
            },
            "button_label": "Tilføj knap",
            "min": 0,
            "max": 1
        }
    ],
    "location": [
        [
            {
                "param": "post_type",
                "operator": "==",
                "value": "tilbud"
            }
        ]
    ],
    "menu_order": 0,
    "position": "normal",
    "style": "default",
    "label_placement": "top",
    "instruction_placement": "label",
    "hide_on_screen": [
        "the_content",
        "excerpt",
        "discussion",
        "comments",
        "categories",
        "tags",
        "send-trackbacks"
    ],
    "active": true,
    "description": "Dette er indholdet man ser på forsiden",
    "modified": 1599046696
}