<svg id="Layer_1" data-name="Layer 1" xmlns="http://www.w3.org/2000/svg" viewBox="0 0 128.08 37.81">
  <defs>
    <style>
      .cls-1 {
        fill: #fff;
      }
    </style>
  </defs>
  <g>
    <path class="cls-1" d="M33.85,17.27a2.06,2.06,0,0,0,.28-1V16a1,1,0,0,1-.62-.29,1.1,1.1,0,0,1-.24-.74,2.72,2.72,0,0,0-.69-.09h-.64a2.36,2.36,0,0,0,.56,1.6A2.21,2.21,0,0,0,33.85,17.27Z" transform="translate(0 0)"/>
    <path class="cls-1" d="M28.52,15.2a2,2,0,0,0-.31-.92,1.89,1.89,0,0,0-.32-.37l-.16.08a9.78,9.78,0,0,1-4,1.27,2.9,2.9,0,0,1-1.09-.18,5.13,5.13,0,0,1-1.87.6,4.26,4.26,0,0,0,1.12.58,6.18,6.18,0,0,0,2,.3,10.1,10.1,0,0,0,4.49-1.3Z" transform="translate(0 0)"/>
    <path class="cls-1" d="M35.43,13.65a4,4,0,0,0-2.87-1A8.06,8.06,0,0,0,31,12.8a4.73,4.73,0,0,1,.57,1.35,6.74,6.74,0,0,1,1-.08,2.58,2.58,0,0,1,1.82.61A2.15,2.15,0,0,1,35,16.25a3.53,3.53,0,0,1-1,2.27,6.15,6.15,0,0,0-1.07,1.92,6,6,0,0,0-3.76,1.45,4.29,4.29,0,0,0-1.37,3.21h1.53a2.85,2.85,0,0,1,.92-2.18,4.93,4.93,0,0,1,3.93-1,5.11,5.11,0,0,1,1.09-2.55,4.94,4.94,0,0,0,1.2-3.08A3.48,3.48,0,0,0,35.43,13.65Z" transform="translate(0 0)"/>
    <path class="cls-1" d="M8.56,25.08a4.29,4.29,0,0,0-1.37-3.21,6,6,0,0,0-3.76-1.45,6.6,6.6,0,0,0-1.07-1.9,3.59,3.59,0,0,1-.94-2.28A2.15,2.15,0,0,1,2,14.67a2.59,2.59,0,0,1,1.83-.61,6.74,6.74,0,0,1,1,.08,5.14,5.14,0,0,1,.56-1.35,8,8,0,0,0-1.54-.15,4,4,0,0,0-2.88,1,3.54,3.54,0,0,0-1,2.58A4.84,4.84,0,0,0,1.2,19.3a4.73,4.73,0,0,1,1,1.94l.11.61h.63a4.59,4.59,0,0,1,3.29,1.06,2.89,2.89,0,0,1,.91,2.18Z" transform="translate(0 0)"/>
    <path class="cls-1" d="M15.64,15.68a5.49,5.49,0,0,1-2-.66,3.84,3.84,0,0,1-1.17.15A9.06,9.06,0,0,1,8.64,14l-.15-.08a1.88,1.88,0,0,0-.63,1.29l.12.06a10.18,10.18,0,0,0,4.5,1.3,6.18,6.18,0,0,0,2-.3A4.23,4.23,0,0,0,15.64,15.68Z" transform="translate(0 0)"/>
    <polygon class="cls-1" points="7.82 32.64 8.56 32.64 8.56 30.52 8.56 28.4 7.82 28.4 7.07 28.4 7.07 30.52 7.07 32.64 7.82 32.64"/>
    <polygon class="cls-1" points="7.07 33.63 7.07 34.36 7.07 35.02 18.21 35.02 29.34 35.02 29.34 34.36 29.34 33.63 18.21 33.63 7.07 33.63"/>
    <polygon class="cls-1" points="11.53 30.52 11.53 29.13 10.79 29.13 10.04 29.13 10.04 30.52 10.04 31.91 10.79 31.91 11.53 31.91 11.53 30.52"/>
    <polygon class="cls-1" points="14.5 30.52 14.5 29.13 13.75 29.13 13.01 29.13 13.01 30.52 13.01 31.91 13.75 31.91 14.5 31.91 14.5 30.52"/>
    <polygon class="cls-1" points="17.47 30.52 17.47 28.4 16.73 28.4 15.98 28.4 15.98 30.52 15.98 32.64 16.73 32.64 17.47 32.64 17.47 30.52"/>
    <polygon class="cls-1" points="20.44 30.52 20.44 28.4 19.69 28.4 18.95 28.4 18.95 30.52 18.95 32.64 19.69 32.64 20.44 32.64 20.44 30.52"/>
    <polygon class="cls-1" points="23.4 30.52 23.4 29.13 22.66 29.13 21.92 29.13 21.92 30.52 21.92 31.91 22.66 31.91 23.4 31.91 23.4 30.52"/>
    <polygon class="cls-1" points="26.37 30.52 26.37 29.13 25.63 29.13 24.89 29.13 24.89 30.52 24.89 31.91 25.63 31.91 26.37 31.91 26.37 30.52"/>
    <polygon class="cls-1" points="27.86 28.4 27.86 30.52 27.86 32.64 28.6 32.64 29.34 32.64 29.34 30.52 29.34 28.4 28.6 28.4 27.86 28.4"/>
    <ellipse class="cls-1" cx="14.69" cy="4.2" rx="0.78" ry="0.76"/>
    <ellipse class="cls-1" cx="18.21" cy="0.76" rx="0.78" ry="0.76"/>
    <ellipse class="cls-1" cx="21.72" cy="4.2" rx="0.78" ry="0.76"/>
    <polygon class="cls-1" points="7.07 26.05 7.07 26.78 7.07 27.43 18.21 27.43 29.34 27.43 29.34 26.78 29.34 26.05 18.21 26.05 7.07 26.05"/>
    <path class="cls-1" d="M15.24,8.69A3,3,0,1,0,19,5.9h0a.27.27,0,0,1-.2-.26V4.8h1.37V3.59H18.83V2.24H17.64V3.59H16.21V4.8h1.43v.84a.27.27,0,0,1-.2.26h0A2.93,2.93,0,0,0,15.24,8.69Zm3-1.57a1.58,1.58,0,1,1-1.6,1.57,1.58,1.58,0,0,1,1.6-1.57Z" transform="translate(0 0)"/>
    <path class="cls-1" d="M8.08,20.42a5.69,5.69,0,0,1,2,4.66h1.49a7,7,0,0,0-2.39-5.56,9.55,9.55,0,0,1-1.69-2.25,3.35,3.35,0,0,1,0-3.38,3,3,0,0,1,2.57-1.27,5.39,5.39,0,0,1,3.15,1.16,5.4,5.4,0,0,0,3,1.15,2.69,2.69,0,0,0,1.26-.41v2a.26.26,0,0,1-.2.25h0a2.22,2.22,0,0,0-1.18.62,2.87,2.87,0,0,0-.82,1.72,2.43,2.43,0,0,0-2.55,2.29v.12a2.6,2.6,0,0,0,2.22,2.58c1,.18,1,.62,1,1h1.49a2.38,2.38,0,0,0-2.12-2.3c-.91-.2-1.15-.76-1.15-1.16,0-1.08,1.26-1.35,2.49-1.06,0-1.24.09-1.77.46-2.14a1.6,1.6,0,0,1,2.06,0c.38.37.51.9.46,2.14,1.23-.29,2.5,0,2.5,1.06A1.21,1.21,0,0,1,21,22.8a2.38,2.38,0,0,0-2.12,2.3h1.48c0-.33.07-.77,1-1a2.59,2.59,0,0,0,2.34-2.58,2.42,2.42,0,0,0-2.44-2.4h-.12a2.86,2.86,0,0,0-.81-1.72,2.29,2.29,0,0,0-1.18-.62h0a.25.25,0,0,1-.2-.25V14.44a2,2,0,0,0,1.24.44,5.4,5.4,0,0,0,3-1.15,5.38,5.38,0,0,1,3.14-1.16,3,3,0,0,1,2.63,1.27,3.3,3.3,0,0,1,0,3.38,11.56,11.56,0,0,1-1.71,2.39,7.43,7.43,0,0,0-2.32,5.47h1.48a6.14,6.14,0,0,1,2-4.56,12.94,12.94,0,0,0,1.91-2.68,5.35,5.35,0,0,0,.61-2.54,4.25,4.25,0,0,0-.67-2.22,4.43,4.43,0,0,0-3.83-1.93,7,7,0,0,0-4,1.4,4,4,0,0,1-2.2.91c-.87,0-1.24-.55-1.24-1h-1.5c0,.46-.38,1-1.24,1A4,4,0,0,1,14,12.52a7,7,0,0,0-4-1.4A4.4,4.4,0,0,0,6.2,13.05a4.17,4.17,0,0,0-.68,2.22,5.33,5.33,0,0,0,.62,2.54A11,11,0,0,0,8.08,20.42Z" transform="translate(0 0)"/>
    <path class="cls-1" d="M2.3,16a2.48,2.48,0,0,0,.26,1.28A2.28,2.28,0,0,0,4.69,15,3.05,3.05,0,0,0,3.28,15,1,1,0,0,1,2.34,16Z" transform="translate(0 0)"/>
  </g>
  <g>
    <path class="cls-1" d="M52.94,30.78a.73.73,0,0,0-.22-.21.63.63,0,0,0-.3-.07h-2V35H48.64V23h4.3a5.1,5.1,0,0,1,2.28.47,3.15,3.15,0,0,1,1.46,1.36,4,4,0,0,1,.47,2,3.81,3.81,0,0,1-.62,2.2,3.32,3.32,0,0,1-1.85,1.21L57.55,35h-2Zm-.17-1.84a2.81,2.81,0,0,0,1.88-.54,2,2,0,0,0,.6-1.59,2.12,2.12,0,0,0-.6-1.62,2.72,2.72,0,0,0-1.9-.57H50.47v4.32Z" transform="translate(0 0)"/>
    <path class="cls-1" d="M58.64,26.06h1.75v9H58.64Zm1.75-3v1.81h-1.7v-1.8Z" transform="translate(0 0)"/>
    <path class="cls-1" d="M63.8,33.22a3.55,3.55,0,0,1-1.47-1.35,3.91,3.91,0,0,1-.52-2,3.63,3.63,0,0,1,.54-2,3.55,3.55,0,0,1,1.47-1.35,4.7,4.7,0,0,1,2.12-.45h4v1.4h-.82s-.09,0-.11.05a.15.15,0,0,0,0,.13,4.15,4.15,0,0,1,.67,1.08A3.07,3.07,0,0,1,69.94,30a3.54,3.54,0,0,1-2,3.2,4.5,4.5,0,0,1-2.1.49A4.62,4.62,0,0,1,63.8,33.22Zm-1.25,3.3V35h7v2.81H68V36.52Zm2.09-8.71a2,2,0,0,0-.8.85,2.68,2.68,0,0,0-.27,1.21,2.52,2.52,0,0,0,.27,1.21,2,2,0,0,0,.8.84,2.74,2.74,0,0,0,2.52,0,2.06,2.06,0,0,0,.79-.84,2.92,2.92,0,0,0,0-2.42,2,2,0,0,0-.78-.85A2.76,2.76,0,0,0,64.64,27.81Z" transform="translate(0 0)"/>
    <path class="cls-1" d="M75.78,27.68a2,2,0,0,0-1.24-.36,2.31,2.31,0,0,0-.9.2,1.56,1.56,0,0,0-.59.42,1,1,0,0,0-.21.61.84.84,0,0,0,.33.72,2.52,2.52,0,0,0,1.08.45l1.42.33a3.85,3.85,0,0,1,1.84.88,2.09,2.09,0,0,1,.61,1.55,2.38,2.38,0,0,1-.45,1.43,3,3,0,0,1-1.27,1,4.78,4.78,0,0,1-1.87.35,4.58,4.58,0,0,1-1.83-.34,3.38,3.38,0,0,1-2-2.54h1.77a1.83,1.83,0,0,0,.38.73,2.14,2.14,0,0,0,.71.52,2.29,2.29,0,0,0,1,.19,2.62,2.62,0,0,0,1-.16,1.54,1.54,0,0,0,.63-.44,1,1,0,0,0,.22-.63c0-.58-.42-1-1.27-1.14l-1.52-.33a3.67,3.67,0,0,1-1.84-.9,2.22,2.22,0,0,1-.61-1.6,2.35,2.35,0,0,1,.43-1.38,2.71,2.71,0,0,1,1.2-.94,4.46,4.46,0,0,1,1.77-.3,4.32,4.32,0,0,1,1.7.32,3.23,3.23,0,0,1,1.21.92,3.42,3.42,0,0,1,.63,1.4H76.43A1.61,1.61,0,0,0,75.78,27.68Z" transform="translate(0 0)"/>
    <path class="cls-1" d="M80.64,34.91a2.49,2.49,0,0,1-1.46-2.39,2.07,2.07,0,0,1,.53-1.5,3,3,0,0,1,1.23-.83,9.18,9.18,0,0,1,1.64-.42l1.88-.34a.59.59,0,0,0,.3-.16.47.47,0,0,0,.1-.3v-.09a1.38,1.38,0,0,0-.24-.81,1.48,1.48,0,0,0-.65-.54,2.29,2.29,0,0,0-1-.2,2.63,2.63,0,0,0-1,.17,1.68,1.68,0,0,0-.63.46,1.25,1.25,0,0,0-.29.6H79.3a2.9,2.9,0,0,1,.64-1.36,3.49,3.49,0,0,1,1.28-.94,4.23,4.23,0,0,1,1.72-.34,5.55,5.55,0,0,1,1.67.26,2.76,2.76,0,0,1,2,2.89v6H84.94v-.73a.13.13,0,0,0,0-.12h-.1a.2.2,0,0,0-.14.06,2.53,2.53,0,0,1-.6.48,4,4,0,0,1-.86.4,3.37,3.37,0,0,1-1,.15A3.71,3.71,0,0,1,80.64,34.91Zm3.15-1.39a2.32,2.32,0,0,0,1.09-2v-.87l-2.09.41a4.49,4.49,0,0,0-1.37.49,1.06,1.06,0,0,0-.53,1,1.1,1.1,0,0,0,.22.7,1.24,1.24,0,0,0,.6.43,2.29,2.29,0,0,0,.86.15A2.18,2.18,0,0,0,83.79,33.52Z" transform="translate(0 0)"/>
    <path class="cls-1" d="M90.09,26.06V27a.21.21,0,0,0,0,.11.16.16,0,0,0,.23,0h0a3.67,3.67,0,0,1,.94-.72,2.53,2.53,0,0,1,1.21-.28h.69v1.4h-.7a2.32,2.32,0,0,0-1.18.29,2.23,2.23,0,0,0-.85.79,2,2,0,0,0-.32,1.1V35H88.37V26Z" transform="translate(0 0)"/>
    <path class="cls-1" d="M96.94,31.11a.21.21,0,0,0-.17.08l-.68.64V35H94.36V23h1.75v6.5a.15.15,0,0,0,0,.13.24.24,0,0,0,.12,0,.17.17,0,0,0,.13-.07L99.78,26h2.09l-3.63,3.82,3.88,5.11H99.94l-2.87-3.81A.2.2,0,0,0,96.94,31.11Z" transform="translate(0 0)"/>
    <path class="cls-1" d="M103.05,26.06h1.74v9h-1.74Zm1.75-3v1.81h-1.74v-1.8Z" transform="translate(0 0)"/>
    <path class="cls-1" d="M109.07,35l-3.26-9h1.83l2.17,6.59a.16.16,0,0,0,.06.08H110a.16.16,0,0,0,.06-.08L112.27,26h1.87l-3.2,9Z" transform="translate(0 0)"/>
    <path class="cls-1" d="M120.51,26.41A3.69,3.69,0,0,1,122,27.9a5.17,5.17,0,0,1,.57,2.56v.67h-6.5a3.43,3.43,0,0,0,.35,1.44,2.27,2.27,0,0,0,.89.9,2.67,2.67,0,0,0,1.3.3,2.44,2.44,0,0,0,1.29-.33,1.77,1.77,0,0,0,.74-.92h1.77a3.64,3.64,0,0,1-.76,1.44,3.37,3.37,0,0,1-1.33.94,4.82,4.82,0,0,1-4-.24,3.84,3.84,0,0,1-1.48-1.61,6,6,0,0,1,0-4.85,4,4,0,0,1,1.51-1.68,4.08,4.08,0,0,1,2.18-.59A4.38,4.38,0,0,1,120.51,26.41Zm0,2.15a2.11,2.11,0,0,0-.84-.86,2.36,2.36,0,0,0-1.19-.32,2.5,2.5,0,0,0-1.17.29,2.36,2.36,0,0,0-.85.78,2.46,2.46,0,0,0-.41,1.07.21.21,0,0,0,0,.19.27.27,0,0,0,.19.08h4.52a2.42,2.42,0,0,0-.26-1.27Z" transform="translate(0 0)"/>
    <path class="cls-1" d="M128.08,27.46v-1.4h-2V23.91h-1.74v1.73a.44.44,0,0,1-.11.29.37.37,0,0,1-.28.13h-1v1.4h1.32V35h3.79V33.5h-2v-6Z" transform="translate(0 0)"/>
  </g>
</svg>
