<?xml version="1.0" encoding="utf-8"?>
<!-- Generator: Adobe Illustrator 23.0.1, SVG Export Plug-In . SVG Version: 6.00 Build 0)  -->
<svg version="1.1" id="Lag_1" xmlns="http://www.w3.org/2000/svg" xmlns:xlink="http://www.w3.org/1999/xlink" x="0px" y="0px"
	 viewBox="0 0 254.1 130.5" style="enable-background:new 0 0 254.1 130.5;" xml:space="preserve">
<style type="text/css">
	.st0{fill:#FFFFFF;}
	.st1{fill-rule:evenodd;clip-rule:evenodd;fill:#FFFFFF;}
</style>
<g>
	<g>
		<path class="st0" d="M1,70.9v58.7h251.7V70.9H1z M249.8,126.7H3.8v-53h246V126.7z"/>
		<polygon class="st0" points="104.7,102.1 108.8,102.1 106.7,96.2 		"/>
		<path class="st0" d="M127.1,95.7h-1.4c-0.3,0-0.4,0.2-0.4,0.5v4.6l1.6,0c2.2,0,3.3-0.8,3.3-2.9C130.2,96.3,129,95.7,127.1,95.7z"
			/>
		<path class="st0" d="M39.3,93.6L39.3,93.6c0-2.7-1.7-4-4.2-4h-2c-0.4,0-0.6,0.2-0.6,0.6v7l2.2,0C37.7,97.3,39.3,96.1,39.3,93.6z"
			/>
		<path class="st0" d="M244.9,78.6H8.7v43.2h236.2V78.6z M49,109.8c0,0.2-0.2,0.3-0.3,0.3h-0.4c-6.4,0-9.3-5-11.8-7.8l-2.1-2.4
			l-1.9,0v6.9c0,0.2,0.1,0.3,0.2,0.4l1.7,1.7c0,0,0.1,0.1,0.1,0.2v0.7c0,0.1,0,0.1-0.1,0.1h-7.5c-0.1,0-0.1,0-0.1-0.1v-0.6
			c0-0.1,0-0.2,0.1-0.2l1.7-1.7c0.1-0.1,0.2-0.2,0.2-0.4V90c0-0.2-0.1-0.3-0.2-0.4l-1.7-1.7c0,0-0.1-0.1-0.1-0.2v-0.7
			c0-0.1,0-0.1,0.1-0.1H36c5.1,0,7.5,2.6,7.5,6.8c0,2.9-2.5,5.2-5.2,5.7c1.1,0.8,2.7,2.1,4.1,3.5c2.1,2.1,4.6,5,6.4,5.4
			c0.2,0.1,0.3,0.2,0.3,0.3V109.8z M59.1,94.2c0,0.1,0,0.2-0.1,0.2l-1.7,1.7c-0.1,0.1-0.2,0.3-0.2,0.4v10.3c0,0.2,0.1,0.3,0.2,0.4
			l1.7,1.7c0,0,0.1,0.1,0.1,0.2v0.7c0,0.1,0,0.1-0.1,0.1h-7.3c-0.1,0-0.1,0-0.1-0.1v-0.6c0-0.1,0-0.2,0.1-0.2l1.7-1.7
			c0.1-0.1,0.2-0.3,0.2-0.4V96.5c0-0.2-0.1-0.3-0.2-0.4l-1.7-1.7c0,0-0.1-0.1-0.1-0.2v-0.7c0-0.1,0-0.1,0.1-0.1H59
			c0.1,0,0.1,0,0.1,0.1V94.2z M79.9,103.4c0,0.2-0.1,0.3-0.3,0.3l-1.3,0.2l-0.2,4.6c-1.5,1.3-4.2,1.8-6.4,1.8
			c-4.7,0-8.8-2.7-8.8-8.3c0-5.9,4.1-8.7,8.8-8.7c2,0,4.3,0.5,5.7,0.9l0,4c0,0.1,0,0.2-0.1,0.2l-0.5,0.1c0,0-0.1,0-0.1,0L74.9,97
			c-0.9-0.7-2.3-1.5-3.5-1.5c-3,0-4.7,2.5-4.7,5.9c0,3.7,2.1,6.4,5.5,6.4c0.7,0,1.6-0.2,2.2-0.3c0.4-0.1,0.6-0.4,0.6-1.1v-2.7
			l-2.5-0.3c-0.2,0-0.3-0.2-0.3-0.3V102c0-0.2,0.1-0.3,0.3-0.3h7.1c0.2,0,0.3,0.1,0.3,0.3V103.4z M89.8,110.2
			c-2.7,0-5.1-0.4-5.8-0.6V105l1-0.2l2,1.6c0.8,0.6,1.9,1.3,2.5,1.3c1.4,0,2.1-0.6,2.1-2.1c0-2.9-7.5-3.8-7.5-8.1
			c0-2.8,1.8-4.5,5.8-4.5c1.7,0,3.3,0.4,5,0.6v3.6l-0.8,0.3L91,96c-0.5-0.2-1-0.6-1.6-0.6c-1.2,0-1.7,0.6-1.7,1.5
			c0,3,7.7,3.8,7.7,8.4C95.4,108.5,93.1,110.2,89.8,110.2z M116.4,109.8c0,0.1-0.1,0.1-0.1,0.1h-7.1c-0.1,0-0.1,0-0.1-0.1v-0.6
			c0-0.1,0-0.2,0.1-0.2l1.3-1.3c0.1-0.1,0.2-0.3,0.2-0.4l-1.1-3h-5.7l-1,2.8c0,0.2,0.2,0.5,0.3,0.6l1.4,1.3c0,0,0.1,0.1,0.1,0.2v0.7
			c0,0.1-0.1,0.1-0.1,0.1h-6.2c-0.1,0-0.1,0-0.1-0.1v-0.6c0-0.1,0-0.2,0.1-0.2l1.7-1.7c0.1-0.1,0.2-0.4,0.3-0.5l5.1-13.2h1.1
			l2.4-0.3l5.4,13.5c0,0.2,0.2,0.5,0.3,0.6l1.7,1.7c0,0,0.1,0.1,0.1,0.2V109.8z M137.9,110c0,0.2-0.9,0.2-1,0.2h-0.3
			c-4.6,0-7.3-4.4-9.1-6.4l-0.8-0.8l-1.4,0v3.9c0,0.2,0.1,0.3,0.2,0.4l1.7,1.7c0,0,0.1,0.1,0.1,0.2v0.7c0,0.1,0,0.1-0.1,0.1h-7.3
			c-0.1,0-0.1,0-0.1-0.1v-0.6c0-0.1,0-0.2,0.1-0.2l1.7-1.7c0.1-0.1,0.2-0.3,0.2-0.4V96.5c0-0.2-0.1-0.3-0.2-0.4l-1.7-1.7
			c0,0-0.1-0.1-0.1-0.2v-0.7c0-0.1,0-0.1,0.1-0.1h8.7c3.6,0,5.3,1.8,5.3,4.5c0,2.2-1.9,4-3.7,4.4c0.5,0.3,1.3,1,1.6,1.3
			c1.4,1.1,4.2,4.8,5.9,5.3c0.2,0,0.2,0.2,0.2,0.2V110z M159.6,109.7c0,0.2-0.1,0.2-0.2,0.2H158c-5,0-7.4-4.4-9.5-6.5l-0.7-0.7h-1.4
			v4.1c0,0.2,0.1,0.3,0.2,0.4l1.7,1.7c0,0,0.1,0.1,0.1,0.2v0.7c0,0.1,0,0.1-0.1,0.1H141c-0.1,0-0.1,0-0.1-0.1v-0.6
			c0-0.1,0-0.2,0.1-0.2l1.7-1.7c0.1-0.1,0.2-0.3,0.2-0.4V96.5c0-0.2-0.1-0.3-0.2-0.4l-1.7-1.7c0,0-0.1-0.1-0.1-0.2v-0.7
			c0-0.1,0-0.1,0.1-0.1h7.3c0.1,0,0.1,0,0.1,0.1v0.6c0,0.1,0,0.2-0.1,0.2l-1.7,1.7c-0.1,0.1-0.2,0.3-0.2,0.4v4.1c0.5,0,1.3,0,2-0.7
			l4-3.8c0.2-0.2,0.2-0.6,0-0.8l-0.9-1c0,0-0.1-0.1-0.1-0.2v-0.7c0-0.1,0.1-0.1,0.1-0.1h6.2c0.1,0,0.1,0,0.1,0.1v0.6
			c0,0.1,0,0.2-0.1,0.2l-7.9,6.9c1.7,0.3,2.6,1.2,3.8,2.3c1.2,1.1,4.2,4.6,5.8,5c0.2,0,0.2,0.2,0.2,0.2V109.7z M169.6,94.2
			c0,0.1,0,0.2-0.1,0.2l-1.7,1.7c-0.1,0.1-0.2,0.3-0.2,0.4v10.3c0,0.2,0.1,0.3,0.2,0.4l1.7,1.7c0,0,0.1,0.1,0.1,0.2v0.7
			c0,0.1,0,0.1-0.1,0.1h-7.3c-0.1,0-0.1,0-0.1-0.1v-0.6c0-0.1,0-0.2,0.1-0.2l1.7-1.7c0.1-0.1,0.2-0.3,0.2-0.4V96.5
			c0-0.2-0.1-0.3-0.2-0.4l-1.7-1.7c0,0-0.1-0.1-0.1-0.2v-0.7c0-0.1,0-0.1,0.1-0.1h7.3c0.1,0,0.1,0,0.1,0.1V94.2z M191.1,94.2
			c0,0.1,0,0.2-0.1,0.2l-1.7,1.7c-0.1,0.1-0.3,0.4-0.4,0.5l-5.7,13.2h-2.7l-5.6-13.2c-0.1-0.2-0.3-0.5-0.4-0.6l-1.7-1.7
			c0,0-0.1-0.1-0.1-0.2v-0.7c0-0.1,0-0.1,0.1-0.1h7.2c0.1,0,0.1,0,0.1,0.1v0.6c0,0.1,0,0.2-0.1,0.2l-1.3,1.3
			c-0.1,0.1-0.2,0.3-0.2,0.4l3.8,10.1l3.9-9.9c0-0.2-0.2-0.5-0.3-0.6l-1.4-1.3c0,0-0.1-0.1-0.1-0.2v-0.7c0-0.1,0-0.1,0.1-0.1h6.3
			c0,0,0.1,0,0.1,0.1V94.2z M207.8,98.2c0,0,0,0.1,0,0.1h-0.6c0,0-0.1,0-0.1-0.1l-2.3-2.3c0,0-0.2-0.1-0.3-0.1h-4.2
			c-0.2,0-0.3,0.2-0.3,0.4v4.2h3.6c0.1,0,0.2,0,0.3-0.1l1.5-0.9c0,0,0.1,0,0.1,0h0.5c0.1,0,0.1,0,0.1,0.1v4.2c0,0,0,0.1-0.1,0.1
			h-0.5c0,0-0.1,0-0.1,0l-1.5-0.9c-0.1,0-0.2-0.1-0.3-0.1h-3.6v4.7c0,0.2,0.2,0.4,0.3,0.4h4.2c0.1,0,0.2-0.1,0.3-0.1l2.3-2.3
			c0,0,0.1-0.1,0.1-0.1h0.6c0,0,0,0.1,0,0.1v4.4c0,0.2-0.1,0.3-0.3,0.3h-13.1c-0.1,0-0.1,0-0.1-0.1v-0.6c0-0.1,0-0.2,0.1-0.2
			l1.7-1.7c0.1-0.1,0.2-0.3,0.2-0.4V96.5c0-0.2-0.1-0.3-0.2-0.4l-1.7-1.7c0,0-0.1-0.1-0.1-0.2v-0.7c0-0.1,0-0.1,0.1-0.1h13.1
			c0.2,0,0.3,0.1,0.3,0.3V98.2z M227.7,98.5c0,0,0,0.1-0.1,0.1H227c0,0-0.1,0-0.1-0.1l-2.7-2.7c-0.1,0-0.2-0.1-0.3-0.1H222
			c-0.2,0-0.4,0.2-0.4,0.4v10.7c0,0.2,0.1,0.3,0.2,0.4l1.7,1.7c0,0,0,0.1,0,0.2v0.7c0,0.1,0,0.1-0.1,0.1h-7.2c-0.1,0-0.2,0-0.2-0.1
			v-0.6c0-0.1,0-0.2,0.1-0.2l1.7-1.7c0.1-0.1,0.2-0.3,0.2-0.4V96.1c0-0.2-0.2-0.4-0.3-0.4h-1.9c-0.1,0-0.2,0.1-0.3,0.1l-2.7,2.7
			c0,0-0.1,0.1-0.1,0.1H212c0,0-0.1-0.1-0.1-0.1v-4.8c0-0.2,0.1-0.3,0.3-0.3h15.2c0.2,0,0.3,0.1,0.3,0.3V98.5z"/>
	</g>
	<path class="st1" d="M161.6,29.4c0-4.4-3.2-7.1-7.6-7.1c-2,0-4,0.5-5.4,1c-0.5-3.2-2.9-4.9-6.6-4.9c-4,0-9.6,4.7-14,5.3l-0.4-1.3
		c1.2-0.2,4.3-1.3,4.3-4.1c0-2.5-1.8-3.9-4.4-4v-2.7h1.2v-1.3h1.7c0,1.1,0.5,2,1.1,2c0.6,0,1-0.8,1.1-1.8c1.1,0,2-0.5,2-1.1
		c0-0.6-0.9-1.1-2-1.1c-0.1-0.9-0.5-1.8-1.1-1.8c-0.6,0-1.1,0.9-1.1,2h-1.7V7.3h-1.2V4.9c1.1,0,2-0.5,2-1.1c0-0.6-0.8-1-1.8-1.1
		c0-1.1-0.4-2-1.1-2c-0.6,0-1.1,0.9-1.1,2c-1,0.1-1.7,0.5-1.7,1.1c0,0.6,0.8,1.1,1.9,1.1v2.3h-1.2v1.3H123c0-1.1-0.4-2-1.1-2
		c-0.6,0-1,0.8-1.1,1.8c-1.1,0-1.9,0.5-1.9,1.1c0,0.6,0.8,1.1,1.9,1.1c0.1,0.9,0.5,1.8,1.1,1.8c0.6,0,1.1-0.9,1.1-2h1.7v1.3h1.2v2.7
		c-2.6,0.1-4.4,1.5-4.4,4c0,2.8,3.1,3.9,4.3,4.1l-0.4,1.3c-4.4-0.6-9.9-5.3-14-5.3c-3.7,0-6.1,1.7-6.6,4.9c-1.5-0.5-3.4-1-5.4-1
		c-4.3,0-7.6,2.7-7.6,7.1c0,3.7,2.5,7.5,4.2,9.1c-0.8,0.1-1.4,0.5-1.8,0.9c3.3,1.7,5.6,4.5,5.6,8.3h0.8c2,0,3.1,2,3.1,3.6
		c-0.9,0.3-1.7,1-1.7,2.6c0,1.5,0.8,2.4,1.9,2.7v4.2h22.7h22.7v-4.2c1.1-0.3,1.9-1.2,1.9-2.7c0-1.6-0.8-2.3-1.7-2.6
		c0-1.6,1.1-3.6,3.1-3.6h0.8c0-3.9,2.3-6.6,5.6-8.3c-0.4-0.4-1-0.9-1.7-0.9C159.2,37,161.6,33.2,161.6,29.4z M125.1,38.8l1.7-0.2
		l1.8,0.2v3.1l-1.8,0.2l-1.7-0.2V38.8z M131.3,46.5v0.5h-4.6h-4.5v-0.4c2-0.8,4-2.3,4.5-3.7C127.3,44.2,129.3,45.7,131.3,46.5z
		 M108.1,44.7c-0.4,1.3-1.5,1.8-2.8,1.8c-1,0-2.3-0.6-2.9-1.5c1-0.9,1.3-1.8,1.3-3.2c0-1.3-0.9-2.5-2.2-2.5c-0.4,0-1.6,0.3-2,0.5
		c-1.3-1.8-2.8-4.4-3.4-6.4c1.5-1.3,1.2-5.6,1.3-7.1c0.9-0.4,2.4-0.8,3.9-0.8c0.3,0,2,0.1,3.5,0.3c0.4,2.1,1.8,5.1,2.7,7.1
		c-1,0.2-2,0.8-2,2c0,1.8,1.2,2.8,2.8,3.3l-0.4,0.8c-0.3-0.1-1.1-0.4-2-0.4c-0.4,0-1.3,0.1-1.3,1.3C104.7,42,106.7,43.7,108.1,44.7z
		 M110.7,44.9c0.5,0.7,1.9,1.6,2.9,2h-5.1C109.3,46.7,110.4,45.4,110.7,44.9z M108.6,40l1.3-0.3l1.2,0.1l0.1,2.1l-1.2,0.2l-1.3-0.1
		L108.6,40z M114.8,54.1l-2,2.7c-0.3,0.3-0.3,0.3-0.6-0.1l-2-2.6c-0.3-0.3-0.3-0.6,0-0.9l2-2.6c0.3-0.3,0.4-0.4,0.6,0l2,2.7
		C115,53.6,115,53.9,114.8,54.1z M116.4,46.2c-1.6,0-2.8-1.3-3.2-2.3c0.9-0.8,1.8-2,1.8-3.6c0-1.3-0.8-1.9-1.8-1.9
		c-0.4,0-1.4,0.2-1.8,0.4l-0.4-0.7c1-0.5,2-1,2-2.7c0-2-1.3-2.6-3-2.7c-0.1-0.8-0.6-2.4-0.6-3.4c1.5-1.3,1.8-4.6,2-6.7
		c3.6-0.4,11,3.2,13.3,3.5c0,0,0.3,0.8,0.3,1.2c0,4.9-5.8,3.6-5.8,7c0,1.8,2,3.5,3.4,4.3l-0.3,0.8c-0.8-0.6-2.3-0.9-3.3-0.9
		c-1.1,0-2.3,0.6-2.3,1.9c0,1.6,1.5,3.2,2.5,3.7C118.7,45.3,117.9,46.2,116.4,46.2z M132.1,56.1c0,0.3-0.1,0.4-0.4,0.5l-4.4,0.4
		h-0.5h-0.5l-4.4-0.4c-0.3-0.1-0.4-0.2-0.4-0.5v-4.6c0-0.3,0.1-0.4,0.4-0.4l4.3-0.4h0.6h0.6l4.4,0.4c0.2,0.1,0.4,0.2,0.4,0.4V56.1z
		 M134.3,44.3c1.1-0.5,2.5-2.1,2.5-3.7c0-1.3-1.2-1.9-2.3-1.9c-1,0-2.5,0.3-3.3,0.9l-0.3-0.8c1.5-0.8,3.4-2.5,3.4-4.3
		c0-3.4-5.8-2.1-5.8-7c0-0.4,0.2-1.2,0.2-1.2c2.4-0.3,9.7-4,13.3-3.5c0.1,2.1,0.4,5.4,2,6.7c-0.1,1-0.5,2.7-0.6,3.4
		c-1.7,0.1-3,0.7-3,2.7c0,1.7,0.9,2.2,2,2.7l-0.4,0.7c-0.4-0.3-1.3-0.4-1.8-0.4c-1,0-1.8,0.6-1.8,1.9c0,1.6,0.9,2.8,1.8,3.6
		c-0.3,0.9-1.5,2.3-3.2,2.3C135.6,46.2,134.8,45.3,134.3,44.3z M144.9,40l-0.1,2.1l-1.2,0.1l-1.3-0.2l0.1-2.1l1.3-0.1L144.9,40z
		 M143.4,54.2l-2,2.6c-0.2,0.4-0.3,0.4-0.6,0.1l-2.1-2.7c-0.2-0.3-0.2-0.5,0-0.8l2-2.7c0.3-0.4,0.4-0.3,0.6,0l2,2.6
		C143.6,53.6,143.6,53.9,143.4,54.2z M140,46.9c1.1-0.4,2.4-1.3,2.9-2c0.2,0.4,1.4,1.8,2.1,2H140z M153.9,39.9
		c-0.3-0.2-1.6-0.5-2-0.5c-1.3,0-2.2,1.1-2.2,2.5c0,1.3,0.4,2.2,1.3,3.2c-0.6,0.9-1.9,1.5-2.9,1.5c-1.3,0-2.3-0.6-2.8-1.8
		c1.5-1,3.4-2.7,3.4-4.7c0-1.2-0.9-1.3-1.3-1.3c-0.9,0-1.6,0.4-2,0.4l-0.4-0.8c1.6-0.6,2.8-1.5,2.8-3.3c0-1.2-1-1.8-2-2
		c0.9-2,2.3-5,2.7-7.1c1.6-0.1,3.3-0.3,3.5-0.3c1.6,0,3,0.4,3.9,0.8c0.1,1.6-0.1,5.9,1.3,7.1C156.8,35.6,155.3,38.1,153.9,39.9z"/>
</g>
</svg>
